/Users/wimaliathulathmudali/Desktop/CloudComputing/CC/src/main/java/com/satellite/starlink/Satellite.java
/Users/wimaliathulathmudali/Desktop/CloudComputing/CC/src/main/java/com/satellite/starlink/SatelliteService.java
/Users/wimaliathulathmudali/Desktop/CloudComputing/CC/src/main/java/com/satellite/starlink/StarlinkApplication.java
/Users/wimaliathulathmudali/Desktop/CloudComputing/CC/src/main/java/com/satellite/starlink/SatelliteController.java
/Users/wimaliathulathmudali/Desktop/CloudComputing/CC/src/main/java/com/satellite/starlink/SatelliteRepository.java
